Randomization and matching
…
.box-5[Step 2: Find difference in average outcome<br>in treatment and control groups]

---

# Example RCT

.small-code[

```r
imaginary_program
```

```
## # A tibble: 800 x 6
##    person treatment   age sex    income_after male_num
##     <int> <chr>     <dbl> <chr>         <dbl>    <dbl>
##  1    498 Control      45 Female         179.        0
##  2    308 Treatment    37 Male           247.        1
##  3    677 Control      35 Female         369.        0
##  4     31 Treatment    39 Female         203.        0
##  5    543 Control      36 Female         190.        0
##  6    434 Control      30 Female         278.        0
##  7    234 Treatment    28 Male           356.        1
##  8    272 Treatment    45 Male           260.        1
##  9    523 Control      49 Female         174.        0
## 10    649 Control      49 Male           224.        1
## # … with 790 more rows
```
…
---

.box-inv-1.smaller[Plug all the values of MPG into the model and find the predicted probability of manual transmission]

.small-code[

```r
augment(model_transmission, data = mtcars, type.predict = "response")
```
]

.pull-left.small-code[

```r
## # A tibble: 32 x 3
##      mpg    am .fitted
##    <dbl> <dbl>   <dbl>
##  1  21       1  0.461 
##  2  21       1  0.461 
##  3  22.8     1  0.598 
##  4  21.4     0  0.492 
##  5  18.7     0  0.297 
##  6  18.1     0  0.260 
*##  7  14.3     0  0.0986
*##  8  24.4     0  0.708
##  9  22.8     0  0.598 
## 10  19.2     0  0.330 
## # … with 22 more rows
```
…
layout: false

.small-code[

```r
augment(model_transmission, data = mtcars, type.predict = "response") %>%
  select(mpg, am, propensity = .fitted) %>%
*  mutate(ip_weight = (am / propensity) + ((1 - am) / (1 - propensity)))
```
]

.pull-left.small-code[

```r
## # A tibble: 32 x 4
##      mpg    am propensity ip_weight
##    <dbl> <dbl>      <dbl>     <dbl>
##  1  21       1     0.461       2.17
##  2  21       1     0.461       2.17
##  3  22.8     1     0.598       1.67
##  4  21.4     0     0.492       1.97
##  5  18.7     0     0.297       1.42
##  6  18.1     0     0.260       1.35
*##  7  14.3     0     0.0986      1.11
*##  8  24.4     0     0.708       3.43
##  9  22.8     0     0.598       2.49
## 10  19.2     0     0.330       1.49
### … with 22 more rows
```
…
